^C:\USERS\NICOLO ARGANDA\DOCUMENTS\VISUAL STUDIO 2015\PROJECTS\TURN_BASED_COMBAT\TURN_BASED_COMBAT\DEBUG\ASSASSINASSASSINATE.OBJ|C:\USERS\NICOLO ARGANDA\DOCUMENTS\VISUAL STUDIO 2015\PROJECTS\TURN_BASED_COMBAT\TURN_BASED_COMBAT\DEBUG\MAGEHEAL.OBJ|C:\USERS\NICOLO ARGANDA\DOCUMENTS\VISUAL STUDIO 2015\PROJECTS\TURN_BASED_COMBAT\TURN_BASED_COMBAT\DEBUG\MAIN.OBJ|C:\USERS\NICOLO ARGANDA\DOCUMENTS\VISUAL STUDIO 2015\PROJECTS\TURN_BASED_COMBAT\TURN_BASED_COMBAT\DEBUG\SKILL.OBJ|C:\USERS\NICOLO ARGANDA\DOCUMENTS\VISUAL STUDIO 2015\PROJECTS\TURN_BASED_COMBAT\TURN_BASED_COMBAT\DEBUG\UNIT.OBJ|C:\USERS\NICOLO ARGANDA\DOCUMENTS\VISUAL STUDIO 2015\PROJECTS\TURN_BASED_COMBAT\TURN_BASED_COMBAT\DEBUG\WARRIORSHOCKWAVE.OBJ
C:\WINDOWS\GLOBALIZATION\SORTING\SORTDEFAULT.NLS
C:\PROGRAM FILES (X86)\WINDOWS KITS\8.1\LIB\WINV6.3\UM\X86\KERNEL32.LIB
C:\PROGRAM FILES (X86)\WINDOWS KITS\8.1\LIB\WINV6.3\UM\X86\USER32.LIB
C:\PROGRAM FILES (X86)\WINDOWS KITS\8.1\LIB\WINV6.3\UM\X86\GDI32.LIB
C:\PROGRAM FILES (X86)\WINDOWS KITS\8.1\LIB\WINV6.3\UM\X86\WINSPOOL.LIB
C:\PROGRAM FILES (X86)\WINDOWS KITS\8.1\LIB\WINV6.3\UM\X86\COMDLG32.LIB
C:\PROGRAM FILES (X86)\WINDOWS KITS\8.1\LIB\WINV6.3\UM\X86\ADVAPI32.LIB
C:\PROGRAM FILES (X86)\WINDOWS KITS\8.1\LIB\WINV6.3\UM\X86\SHELL32.LIB
C:\PROGRAM FILES (X86)\WINDOWS KITS\8.1\LIB\WINV6.3\UM\X86\OLE32.LIB
C:\PROGRAM FILES (X86)\WINDOWS KITS\8.1\LIB\WINV6.3\UM\X86\OLEAUT32.LIB
C:\PROGRAM FILES (X86)\WINDOWS KITS\8.1\LIB\WINV6.3\UM\X86\UUID.LIB
C:\PROGRAM FILES (X86)\WINDOWS KITS\8.1\LIB\WINV6.3\UM\X86\ODBC32.LIB
C:\PROGRAM FILES (X86)\WINDOWS KITS\8.1\LIB\WINV6.3\UM\X86\ODBCCP32.LIB
C:\USERS\NICOLO ARGANDA\DOCUMENTS\VISUAL STUDIO 2015\PROJECTS\TURN_BASED_COMBAT\TURN_BASED_COMBAT\DEBUG\ASSASSINASSASSINATE.OBJ
C:\USERS\NICOLO ARGANDA\DOCUMENTS\VISUAL STUDIO 2015\PROJECTS\TURN_BASED_COMBAT\TURN_BASED_COMBAT\DEBUG\MAGEHEAL.OBJ
C:\USERS\NICOLO ARGANDA\DOCUMENTS\VISUAL STUDIO 2015\PROJECTS\TURN_BASED_COMBAT\TURN_BASED_COMBAT\DEBUG\SKILL.OBJ
C:\USERS\NICOLO ARGANDA\DOCUMENTS\VISUAL STUDIO 2015\PROJECTS\TURN_BASED_COMBAT\TURN_BASED_COMBAT\DEBUG\MAIN.OBJ
C:\USERS\NICOLO ARGANDA\DOCUMENTS\VISUAL STUDIO 2015\PROJECTS\TURN_BASED_COMBAT\TURN_BASED_COMBAT\DEBUG\UNIT.OBJ
C:\USERS\NICOLO ARGANDA\DOCUMENTS\VISUAL STUDIO 2015\PROJECTS\TURN_BASED_COMBAT\TURN_BASED_COMBAT\DEBUG\WARRIORSHOCKWAVE.OBJ
C:\WINDOWS\SYSTEM32\TZRES.DLL
C:\PROGRAM FILES (X86)\MICROSOFT VISUAL STUDIO 14.0\VC\LIB\MSVCPRTD.LIB
C:\PROGRAM FILES (X86)\MICROSOFT VISUAL STUDIO 14.0\VC\LIB\MSVCRTD.LIB
C:\PROGRAM FILES (X86)\MICROSOFT VISUAL STUDIO 14.0\VC\LIB\OLDNAMES.LIB
C:\PROGRAM FILES (X86)\MICROSOFT VISUAL STUDIO 14.0\VC\LIB\VCRUNTIMED.LIB
C:\PROGRAM FILES (X86)\WINDOWS KITS\10\LIB\10.0.10240.0\UCRT\X86\UCRTD.LIB
C:\PROGRAM FILES (X86)\MICROSOFT VISUAL STUDIO 14.0\VC\BIN\LINK.EXE
C:\PROGRAM FILES (X86)\WINDOWS KITS\8.1\BIN\X86\RC.EXE
C:\PROGRAM FILES (X86)\MICROSOFT VISUAL STUDIO 14.0\VC\BIN\CVTRES.EXE
