^C:\USERS\11524299\DOCUMENTS\VISUAL STUDIO 2015\PROJECTS\EXERCISE 2 - 2\EXERCISE 2 - 2\SOURCE.CPP
C:\USERS\11524299\DOCUMENTS\VISUAL STUDIO 2015\PROJECTS\EXERCISE 2 - 2\EXERCISE 2 - 2\DEBUG\VC140.PDB
C:\USERS\11524299\DOCUMENTS\VISUAL STUDIO 2015\PROJECTS\EXERCISE 2 - 2\EXERCISE 2 - 2\DEBUG\VC140.IDB
C:\USERS\11524299\DOCUMENTS\VISUAL STUDIO 2015\PROJECTS\EXERCISE 2 - 2\EXERCISE 2 - 2\DEBUG\SOURCE.OBJ
