^C:\USERS\11524299\DOCUMENTS\VISUAL STUDIO 2015\PROJECTS\EXERCISE 2 - 2\EXERCISE 2 - 2\DEBUG\SOURCE.OBJ
C:\USERS\11524299\DOCUMENTS\VISUAL STUDIO 2015\PROJECTS\EXERCISE 2 - 2\DEBUG\EXERCISE 2 - 2.ILK
C:\USERS\11524299\DOCUMENTS\VISUAL STUDIO 2015\PROJECTS\EXERCISE 2 - 2\DEBUG\EXERCISE 2 - 2.EXE
C:\USERS\11524299\DOCUMENTS\VISUAL STUDIO 2015\PROJECTS\EXERCISE 2 - 2\DEBUG\EXERCISE 2 - 2.PDB
