^C:\USERS\NICOLO ARGANDA\DOCUMENTS\VISUAL STUDIO 2015\PROJECTS\ARENA\ARENA\ATTACK.CPP|C:\USERS\NICOLO ARGANDA\DOCUMENTS\VISUAL STUDIO 2015\PROJECTS\ARENA\ARENA\MAIN.CPP|C:\USERS\NICOLO ARGANDA\DOCUMENTS\VISUAL STUDIO 2015\PROJECTS\ARENA\ARENA\UNIT.CPP
C:\USERS\NICOLO ARGANDA\DOCUMENTS\VISUAL STUDIO 2015\PROJECTS\ARENA\ARENA\DEBUG\VC140.PDB
C:\USERS\NICOLO ARGANDA\DOCUMENTS\VISUAL STUDIO 2015\PROJECTS\ARENA\ARENA\DEBUG\VC140.IDB
C:\USERS\NICOLO ARGANDA\DOCUMENTS\VISUAL STUDIO 2015\PROJECTS\ARENA\ARENA\DEBUG\MAIN.OBJ
^C:\USERS\NICOLO ARGANDA\DOCUMENTS\VISUAL STUDIO 2015\PROJECTS\ARENA\ARENA\ATTACK.CPP
C:\USERS\NICOLO ARGANDA\DOCUMENTS\VISUAL STUDIO 2015\PROJECTS\ARENA\ARENA\DEBUG\VC140.PDB
C:\USERS\NICOLO ARGANDA\DOCUMENTS\VISUAL STUDIO 2015\PROJECTS\ARENA\ARENA\DEBUG\VC140.IDB
C:\USERS\NICOLO ARGANDA\DOCUMENTS\VISUAL STUDIO 2015\PROJECTS\ARENA\ARENA\DEBUG\ATTACK.OBJ
^C:\USERS\NICOLO ARGANDA\DOCUMENTS\VISUAL STUDIO 2015\PROJECTS\ARENA\ARENA\MAIN.CPP
C:\USERS\NICOLO ARGANDA\DOCUMENTS\VISUAL STUDIO 2015\PROJECTS\ARENA\ARENA\DEBUG\VC140.PDB
C:\USERS\NICOLO ARGANDA\DOCUMENTS\VISUAL STUDIO 2015\PROJECTS\ARENA\ARENA\DEBUG\VC140.IDB
C:\USERS\NICOLO ARGANDA\DOCUMENTS\VISUAL STUDIO 2015\PROJECTS\ARENA\ARENA\DEBUG\MAIN.OBJ
^C:\USERS\NICOLO ARGANDA\DOCUMENTS\VISUAL STUDIO 2015\PROJECTS\ARENA\ARENA\UNIT.CPP
C:\USERS\NICOLO ARGANDA\DOCUMENTS\VISUAL STUDIO 2015\PROJECTS\ARENA\ARENA\DEBUG\VC140.PDB
C:\USERS\NICOLO ARGANDA\DOCUMENTS\VISUAL STUDIO 2015\PROJECTS\ARENA\ARENA\DEBUG\VC140.IDB
^C:\USERS\NICOLO ARGANDA\DOCUMENTS\VISUAL STUDIO 2015\PROJECTS\ARENA\ARENA\MAIN.CPP|C:\USERS\NICOLO ARGANDA\DOCUMENTS\VISUAL STUDIO 2015\PROJECTS\ARENA\ARENA\UNIT.CPP
C:\USERS\NICOLO ARGANDA\DOCUMENTS\VISUAL STUDIO 2015\PROJECTS\ARENA\ARENA\DEBUG\VC140.PDB
C:\USERS\NICOLO ARGANDA\DOCUMENTS\VISUAL STUDIO 2015\PROJECTS\ARENA\ARENA\DEBUG\VC140.IDB
C:\USERS\NICOLO ARGANDA\DOCUMENTS\VISUAL STUDIO 2015\PROJECTS\ARENA\ARENA\DEBUG\MAIN.OBJ
C:\USERS\NICOLO ARGANDA\DOCUMENTS\VISUAL STUDIO 2015\PROJECTS\ARENA\ARENA\DEBUG\UNIT.OBJ
^C:\USERS\NICOLO ARGANDA\DOCUMENTS\VISUAL STUDIO 2015\PROJECTS\ARENA\ARENA\ATTACK.CPP|C:\USERS\NICOLO ARGANDA\DOCUMENTS\VISUAL STUDIO 2015\PROJECTS\ARENA\ARENA\UNIT.CPP
C:\USERS\NICOLO ARGANDA\DOCUMENTS\VISUAL STUDIO 2015\PROJECTS\ARENA\ARENA\DEBUG\VC140.PDB
C:\USERS\NICOLO ARGANDA\DOCUMENTS\VISUAL STUDIO 2015\PROJECTS\ARENA\ARENA\DEBUG\VC140.IDB
C:\USERS\NICOLO ARGANDA\DOCUMENTS\VISUAL STUDIO 2015\PROJECTS\ARENA\ARENA\DEBUG\UNIT.OBJ
^C:\USERS\NICOLO ARGANDA\DOCUMENTS\VISUAL STUDIO 2015\PROJECTS\ARENA\ARENA\ATTACK.CPP|C:\USERS\NICOLO ARGANDA\DOCUMENTS\VISUAL STUDIO 2015\PROJECTS\ARENA\ARENA\MAIN.CPP
C:\USERS\NICOLO ARGANDA\DOCUMENTS\VISUAL STUDIO 2015\PROJECTS\ARENA\ARENA\DEBUG\VC140.PDB
C:\USERS\NICOLO ARGANDA\DOCUMENTS\VISUAL STUDIO 2015\PROJECTS\ARENA\ARENA\DEBUG\VC140.IDB
C:\USERS\NICOLO ARGANDA\DOCUMENTS\VISUAL STUDIO 2015\PROJECTS\ARENA\ARENA\DEBUG\ATTACK.OBJ
C:\USERS\NICOLO ARGANDA\DOCUMENTS\VISUAL STUDIO 2015\PROJECTS\ARENA\ARENA\DEBUG\MAIN.OBJ
