^C:\USERS\NICOLO ARGANDA\DOCUMENTS\VISUAL STUDIO 2015\PROJECTS\ARENA\ARENA\DEBUG\MAIN.OBJ|C:\USERS\NICOLO ARGANDA\DOCUMENTS\VISUAL STUDIO 2015\PROJECTS\ARENA\ARENA\DEBUG\UNIT.OBJ
C:\USERS\NICOLO ARGANDA\DOCUMENTS\VISUAL STUDIO 2015\PROJECTS\ARENA\DEBUG\ARENA.ILK
C:\USERS\NICOLO ARGANDA\DOCUMENTS\VISUAL STUDIO 2015\PROJECTS\ARENA\DEBUG\ARENA.EXE
C:\USERS\NICOLO ARGANDA\DOCUMENTS\VISUAL STUDIO 2015\PROJECTS\ARENA\DEBUG\ARENA.PDB
