^C:\USERS\11524299\DOCUMENTS\SY15T3-BASPRG2-TG102B-ARGANDA-NICOLO\QUIZZES\SUGGEST A PACKAGE\SUGGEST A PACKAGE\DEBUG\SUGGEST A PACKAGE.OBJ
C:\USERS\11524299\DOCUMENTS\SY15T3-BASPRG2-TG102B-ARGANDA-NICOLO\QUIZZES\SUGGEST A PACKAGE\DEBUG\SUGGEST A PACKAGE.ILK
C:\USERS\11524299\DOCUMENTS\SY15T3-BASPRG2-TG102B-ARGANDA-NICOLO\QUIZZES\SUGGEST A PACKAGE\DEBUG\SUGGEST A PACKAGE.EXE
C:\USERS\11524299\DOCUMENTS\SY15T3-BASPRG2-TG102B-ARGANDA-NICOLO\QUIZZES\SUGGEST A PACKAGE\DEBUG\SUGGEST A PACKAGE.PDB
