^C:\USERS\NICOLO ARGANDA\DOCUMENTS\VISUAL STUDIO 2015\PROJECTS\EXERCISE 1 - 5-8\EXERCISE 1 - 5-8\DEBUG\EX 1-5.OBJ
C:\USERS\NICOLO ARGANDA\DOCUMENTS\VISUAL STUDIO 2015\PROJECTS\EXERCISE 1 - 5-8\DEBUG\EXERCISE 1- 5.ILK
C:\USERS\NICOLO ARGANDA\DOCUMENTS\VISUAL STUDIO 2015\PROJECTS\EXERCISE 1 - 5-8\DEBUG\EXERCISE 1- 5.EXE
C:\USERS\NICOLO ARGANDA\DOCUMENTS\VISUAL STUDIO 2015\PROJECTS\EXERCISE 1 - 5-8\DEBUG\EXERCISE 1- 5.PDB
